module ooc

go 1.21.0

require (
	github.com/go-resty/resty/v2 v2.9.1
	github.com/lestrrat-go/file-rotatelogs v2.4.0+incompatible
	github.com/panjf2000/gnet/v2 v2.3.3
	github.com/pkg/errors v0.9.1
	github.com/samber/lo v1.38.1
	go.uber.org/zap v1.26.0
	google.golang.org/protobuf v1.31.0
)

require (
	github.com/jonboulle/clockwork v0.4.0 // indirect
	github.com/lestrrat-go/strftime v1.0.6 // indirect
	github.com/valyala/bytebufferpool v1.0.0 // indirect
	go.uber.org/multierr v1.10.0 // indirect
	golang.org/x/exp v0.0.0-20220303212507-bbda1eaf7a17 // indirect
	golang.org/x/net v0.15.0 // indirect
	golang.org/x/sync v0.3.0 // indirect
	golang.org/x/sys v0.12.0 // indirect
	gopkg.in/natefinch/lumberjack.v2 v2.2.1 // indirect
)
